username,transcount
550131816_aadesh_phonefake1547715651132,19
55031538_anamika_phoneFake1547709616840,22
55031718_priyal_laptopfake1547706106060,64
55031718_priyal_phonefake1547705059432,31
55031808_saraansh_phonefake1547704389251,94
55031808_saraansh_phonefake1547706743889,103
55031808_saraansh_phonefake1547708482627,298
55031809_anushka_phonefake1547705313140,313
55031809_anushka_phonefake1547711266661,13
55031810_hse_LaptopFake1547709444190,268
55031810_hse_PhoneFake1547704945590,223
55031811_Sarvesh_DesktopFake1547706520538,466
55031811_Sarvesh_PhoneFake1547705676483,1
55031811_Sarvesh_PhoneFake1547711526725,160
55031812_ritika1_desktopfake1547708604616,43
55031812_ritika2_desktopfake1547710353672,22
55031812_ritika2_desktopfake1547711644134,64
55031812_ritika_desktopfake1547706513551,157
55031814_ayush_laptopfake1547709096898,166
55031814_ayush_phonefake1547706604149,175
55031816_aadesh_PHONEFAKE1547705497450,172
550318171547709707310,19
55031817_priyal_fakephone1547711034021,43
55031817_priyal_fakephone1547711972801,34
55031819_Nirbhay_LaptopFake1547705506462,25
55031819_Nirbhay_LaptopFake1547706406164,13
55031819_Nirbhay_LaptopFake1547706772356,10
55031819_Nirbhay_LaptopFake1547707153371,4
55031819_Nirbhay_PhoneFake1547705122143,4
55031819_Nirbhay_PhoneFake1547705168422,10
55031819_Nirbhay_phonefake1547705851551,25
55031819_Nirbhay_phonefake1547711620096,22
55031820_ishan_laptopfake1547704854999,25
55031820_ishan_phonefake1547705213448,193
55031821_paresh_laptopfake1547704695438,1
55031821_paresh_laptopfake1547705164817,13
55031821_paresh_phonefake1547708649929,4
55031821_paresh_phonefake1547709794616,28
55031821_paresh_phonefake1547711409275,7
55031823_Akash_laptopfake1547709112694,178
55031823_Akash_phonefake1547705436520,55
55031823_Akash_phonefake1547706062855,106
55031823_Akash_phonefake1547710917170,58
55031824_utkarsh_laptopfake1547708532137,31
55031824_utkarsh_phonefake1547705826075,31
55031824_utkarsh_phonefake1547707241295,25
55031824_utkarsh_phonefake1547710213397,43
55031825_Ritu1.Mishra_laptopfake1547705355124,1
55031825_Ritu1.Mishra_laptopfake1547705456148,1
55031825_Ritu1.Mishra_laptopfake1547705495714,1
55031825_Ritu1.Mishra_laptopfake1547705521633,1
55031825_Ritu1.Mishra_laptopfake1547705569391,1
55031825_Ritu_laptopfake1547706412261,169
55031825_Ritu_laptopfake1547707666115,94
55031826_ankit_laptopfake1547706133599,49
55031826_ankit_phonefake1547705274305,49
55031826_ankit_phonefake1547707785830,112
55031826_ankit_phonefake1547709309249,46
55031828_Shivam_phonefake1547706721312,145
55031828_shivam_laptopfake1547711365520,58
55031828_shivam_laptopfake1547712038419,7
55031828_shivam_phonefake1547710899089,49
55031829_adarsh_laptopfake1547704753211,61
55031829_adarsh_laptopfake1547705252183,16
55031829_adarsh_phonefake1547705704787,16
55031829_adarsh_phonefake1547706191627,58
55031829_adarsh_phonefake1547706757069,58
55031829_adarsh_phonefake1547708856826,4
55031829_adarsh_phonefake1547709360252,61
55031829_adarsh_phonefake1547709905300,34
55031829_adarsh_phonefake1547711236339,58
55031829_adarsh_phonefake1547711717844,1
55031829_adarsh_phonefake1547711773509,25
55031830_Anshika1_LaptopFake1547704685559,76
55031830_Anshika1_PhoneFake1547707151826,82
55031830_Anshika2_PhoneFake1547711333971,67
55031831_Dinesh_Phonefake1547706625198,70
55031831_Dinesh_Phonefake1547709242042,97
55031831_Dinesh_Phonefake1547715527235,13
55031832_Prathamesh_desktopfake1547710127957,52
55031832_Prathamesh_desktopfake1547710570081,1
55031832_Prathamesh_desktopfake1547710609439,52
55031832_Prathamesh_phonefake1547707164539,118
55031833_ankit_laptopfake1547704557833,10
55031833_ankit_phonefake1547705523930,142
55031833_ankit_phonefake1547710811411,34
55031836_aniket_fakephone1547707596349,106
55031836_aniket_phonefake1547704435083,43
55031836_aniketsh_fakephone1547710868143,46
55031837_nishant_phonefake1547705238118,73
55031837_nishant_phonefake1547708171709,1
55031837_nishant_phonefake1547708213453,172
55031837_nishant_phonefake1547709299956,184
55031838_anamika_phoneFake1547704887648,43
55031838_anamika_phoneFake1547708606398,37
55031838_anamika_phonefake1547707557435,52
55031838_anamika_phonefake1547711562126,31
55031839_Gaurav_phonefake1547706221435,76
55031839_Gaurav_phonefake1547707358717,7
55031839_Gaurav_phonefake1547708774758,67
55031839_Gaurav_phonefake1547710049619,73
55031839_Gaurav_phonefake1547711299590,64
55031841_ani_laptopfake1547704749427,1
55031841_animeah_phonefake1547708188996,46
55031841_animeh_laptopfake1547707510924,22
55031841_animes_phonefake1547710450746,31
55031841_animesh1_phonefake1547706957215,46
55031841_animesh_laptopfake1547705496763,43
55031841_animesh_phonefake1547706144942,58
55031841_animesh_phonefake1547711533925,52
55031843_SHUBHAM_LAPTOPFAKE1547707635790,1
55031843_SHUBHAM_PHONEFAKE1547705830905,1
55031843_SHUBHAM_TVFAKE1547705664569,1
55031843_SHUBHAM_TVFAKE1547709905829,145
55031843_SHUBHAM_TVFAKE1547711188873,34
55031844_SHREYASH_TvFake1547709224631,79
55031844_Shreyah_Laptopfake1547709063693,1
55031844_Shreyas_LaptopFake1547709240889,4
55031844_Shreyas_LaptopFake1547709803678,37
55031844_Shreyas_LaptopFake1547711438554,13
55031844_Shreyas_LaptopFake1547711832376,7
55031845_Rohit_phonefake1547708452712,214
55031845_rohit_phonefake1547705676675,184
55031847_vinit_laptopfake1547708001113,4
55031847_vinit_laptopfake1547708808580,187
55031847_vinit_phonefake1547704581874,115
55031847_vinit_phonefake1547705948010,52
55031847_vinit_phonefake1547706708472,43
55031848_ravindra_phonefake1547704620157,358
55031849_shriniket_desktopfake1547708010594,196
55031850_atharva_dextopfake1547707109132,166
55031850_atharva_phonefake1547705696657,1
55031851_aditya_TVFAKE1547711671004,109
55031851_aditya_phonefake1547705576051,136
55031852_Madhav_phonefake1547704479686,202
55031853_SHUBHAM_Laptopfake1547711703247,76
55031853_SHUBHAM_TV1547711072163,1
55031853_simren_phonebook1547708572613,55
55031853_simren_phonefake1547704323106,34
55031853_simren_phonefake1547705729557,10
55031853_simren_phonefake1547705854314,4
55031853_simren_phonefake1547706069895,54
55031853_simren_phonefake1547707128222,55
55031853_simren_phonefake1547709081558,58
55031853_simren_phonefake1547710088321,55
55031853_simren_phonefake1547710478822,58
55031853_simren_phonefake1547710895589,58
55031853_simren_phonefake1547711350790,16
55031854_niyati_laptopfake1547707507337,1
55031854_niyati_laptopfake1547708192510,34
55031854_niyati_phonefake1547705013383,37
55031854_niyati_phonefake15477106532561547710653256_vishwam,4
55031854_niyati_phonefake1547710738511,100
55031855_vartika_laptopfake1547711094738,49
55031855_vartika_phonefake1547704512262,328
55031855_vartika_phonefake1547709675046,52
55031856_shreya1_laptopfake1547708848391,58
55031856_shreya2_laptopfake1547709769493,61
55031856_shreya3_laptopfake1547710805100,115
55031856_shreya_laptopfake1547706527020,13
55031856_shreya_laptopfake1547707576933,64
55031858_Sater_PHONEFAKE1547704820414,34
55031858_SaurabhKon_LAPTOPFAKE1547709644327,1
55031858_SaurabhKon_LAPTOPFAKE1547709844992,58
55031858_SaurabhKon_LAPTOPFAKE1547710732529,55
55031858_SaurabhKon_PHONEFAKE1547705547393,46
55031858_SaurabhKon_PHONEFAKE1547706192470,58
55031858_SaurabhKon_PHONEFAKE1547706940318,31
55031858_SaurabhKon_PHONEFAKE1547708737348,52
55031859_abhishek_phonefake1547708935034,1
55031859_abhishek_phonefake1547709326259,139
5503185_niyati_phonefake1547704780326,19
55031860_neeraj_laptopfake1547709040731,37
55031860_neeraj_phonefake1547705098118,19
55031860_neeraj_phonefake1547705280614,55
55031860_neeraj_phonefake1547706395966,46
55031860_neeraj_phonefake1547710760302,43
55031865_nihal_laptopfake1547714260402,196
55031865_nihal_phonefake1547706688321,286
55031878_kunal_phonefake1547704569246,358
55031881_ayushi_laptopfake1547706447582,67
55031881_ayushi_phonefake1547704728490,58
55031881_ayushi_phonefake1547707155734,88
55031881_ayushi_phonefake1547708658118,7
55031881_ayushi_phonefake1547709572692,40
55031882_pranavg_fakephone1547705031232,181
55031883_AMISHA_PHONEFAKE1547704611127,7
55031883_amisha_fakePhone1547706170252,61
55031883_amisha_laptopfake1547709144140,109
55031883_amisha_phonefake1547712030652,19
55031884_Pushkara_phonefake1547706620648,67
55031885_pranav_desktopfake1547707856180,250
55031886_adi_phonefake1547705781609,58
55031886_adi_phonefake1547707575290,82
55031894_anay_phonefake1547705670362,373
55031897_lokesh_laptopfake1547709166587,58
55031897_lokesh_laptopfake1547709857256,61
55031897_lokesh_phonefake1547705431027,1
55031897_lokesh_phonefake1547705783572,109
55031904_arjit_phonefake1547704476408,181
555031884_Pushkara_phonefake1547709368509,67
55831031_Dinesh_Phonefake1547705146437,37
55831886_adi_phonefake1547704546785,37
Alok.R.Kumar,32
Nitin.Bali,12
gva215476153996021547615399602_vishwam,3
hyd_vinnu_real1547706295003,16
manoj1547710326846,4
mum_adi1547697306385,7
mum_dinesh1547704511523,1
mum_noah1547627440449,39
mum_noah1547635625896,6
mum_noah1547697863085,10
mum_santhosh1547701738968,4
mum_santhosh15477074188291547707418829_vishwam,1
mum_santhosh1547714770384,10
mum_shivani1547609974485,24
mum_shivani_real1547698404958,13
mum_test15477075973961547707597396_vishwam,1
neha1547704495110,1
nish550318371547622152959,39
pankaj1547604243070,3
pankaj1547618301526,15
ping1547610592245,21
pk1547634662533,3
pk1547634716847,3
priyal_real1547629824592,12
real1547629514287,18
realise_ios1547634626468,36
ritu_laptopfake1547640615725,84
ritu_real1547629396471,45
ritu_real1547635104643,45
sank1547623684172,3
santhosh1547605276188,9
santhosh1547605948778,9
santhosh1547608138866,3
santhosh1547626836495,9
santhosh1547641486463,2
sathu15476092192411547609219241_vishwam,51
sathu1547634308375,9
shank1547609561679,63
shank1547621835047,9
shank1547623605917,3
shank1547623741532,9
shank_IW4bSPEP6Y0ZdGc,3
shinchaan_real1547629808604,3
shinchan&kazama1547622308967,3
shivam13971547619453126,39
shivam13971547621877471,3
shivam13971547621985677,3
simmi1547621925561,18
simmi215476223568001547622356800_vishwam,9
simrensen1547623742268,9
ssggsgs1547619586453,90
suankpashikanti1547640384516,3
test15477083419371547708341937_vishwam,1
test15477096763931547709676393_vishwam,1
vinnu_hyd1547625891901,9
vinnuphoto_hyd15476107180571547610718057_vishwam,21
vinnuribhu_hyd15476118343551547611834355_vishwam,6
yugioh1547623613058,6
